<svg width="640" height="480" xmlns="http://www.w3.org/2000/svg">
 <g>
  <title>Kiintea_muinaisjaannos</title>
  <circle id="svg_1" r="80" cy="315" cx="319" stroke-width="9" stroke="#ff0000" fill="#ffffff"/>
  <circle id="svg_2" r="447.92075" cy="1145" cx="1580" stroke-width="5" stroke="#000000" fill="#FF0000"/>
  <line id="svg_4" y2="899" x2="1428" y1="1130" x1="1617" stroke-linecap="round" stroke-linejoin="round" stroke-dasharray="null" stroke-width="8" stroke="#ff0000" fill="none"/>
  <path id="svg_5" d="m317.27533,114.24653c25.98914,-24.82089 51.97989,24.8169 77.9686,0l0,44.67422c-25.98871,24.81689 -51.97946,-24.82077 -77.9686,0l0,-44.67422z" stroke-linecap="round" stroke-linejoin="round" stroke-dasharray="null" stroke-width="9" stroke="#ff0000" fill="#ff0000"/>
  <path id="svg_6" d="m1298.00208,973.67023c31.68408,-39.99939 63.34277,39.97864 95.00366,0l0,71.97638c-31.66089,39.98743 -63.31958,-39.99017 -95.00366,0l0,-71.97638z" stroke-linecap="round" stroke-linejoin="round" stroke-dasharray="null" stroke-width="8" stroke="#ff0000" fill="none"/>
  <line id="svg_7" y2="233" x2="317" y1="120" x1="317" stroke-linecap="round" stroke-linejoin="round" stroke-dasharray="null" stroke-width="9" stroke="#ff0000" fill="none"/>
  <line id="svg_8" y2="1053" x2="1565" y1="1086" x1="1593" stroke-linecap="round" stroke-linejoin="round" stroke-dasharray="null" stroke-width="8" stroke="#ff0000" fill="none"/>
 </g>
</svg>