<?xml version="1.0" encoding="UTF-8" standalone="no"?>
<!-- Created with Inkscape (http://www.inkscape.org/) -->

<svg
   xmlns:dc="http://purl.org/dc/elements/1.1/"
   xmlns:cc="http://creativecommons.org/ns#"
   xmlns:rdf="http://www.w3.org/1999/02/22-rdf-syntax-ns#"
   xmlns:svg="http://www.w3.org/2000/svg"
   xmlns="http://www.w3.org/2000/svg"
   xmlns:sodipodi="http://sodipodi.sourceforge.net/DTD/sodipodi-0.dtd"
   xmlns:inkscape="http://www.inkscape.org/namespaces/inkscape"
   version="1.1"
   width="375"
   height="655"
   id="svg2"
   xml:space="preserve"
   inkscape:version="0.48.4 r9939"
   sodipodi:docname="Smasto.svg"><sodipodi:namedview
     pagecolor="#ffffff"
     bordercolor="#666666"
     borderopacity="1"
     objecttolerance="10"
     gridtolerance="10"
     guidetolerance="10"
     inkscape:pageopacity="0"
     inkscape:pageshadow="2"
     inkscape:window-width="1920"
     inkscape:window-height="1012"
     id="namedview9"
     showgrid="false"
     inkscape:zoom="1.3683196"
     inkscape:cx="-49.66718"
     inkscape:cy="551.58052"
     inkscape:window-x="-8"
     inkscape:window-y="-8"
     inkscape:window-maximized="1"
     inkscape:current-layer="svg2"
     inkscape:snap-global="false" /><metadata
     id="metadata8"><rdf:RDF><cc:Work
         rdf:about=""><dc:format>image/svg+xml</dc:format><dc:type
           rdf:resource="http://purl.org/dc/dcmitype/StillImage" /><dc:title /></cc:Work></rdf:RDF></metadata><defs
     id="defs6"><inkscape:path-effect
       effect="spiro"
       id="path-effect3762"
       is_visible="true" /></defs><g
     id="g3775"><g
       transform="translate(97.505,-432.48899)"
       id="g2994"><g
         id="g2991"><path
           style="fill:none;stroke:#000000;stroke-width:31.25000000000000000;stroke-linecap:butt;stroke-linejoin:bevel;stroke-miterlimit:10;stroke-opacity:1;stroke-dasharray:none"
           id="path14"
           inkscape:connector-curvature="0"
           d="m -97.5,900 375,0 M 90,1087.5 l 0,-625 -87.5,125 m 175,0 -87.5,-125" /></g><path
         d="m 177.5,900 c 0,-48.325 -39.175,-87.5 -87.5,-87.5 -48.32475,0 -87.5,39.175 -87.5,87.5 0,48.32475 39.17525,87.5 87.5,87.5 48.325,0 87.5,-39.17525 87.5,-87.5"
         inkscape:connector-curvature="0"
         id="path16"
         style="fill:#000000;fill-opacity:1;fill-rule:nonzero;stroke:none" /></g><path
       sodipodi:type="star"
       style="fill:#000000;fill-opacity:1;stroke:#000000;stroke-width:4;stroke-miterlimit:4;stroke-opacity:1;stroke-dasharray:none"
       id="path3791"
       sodipodi:sides="3"
       sodipodi:cx="-600"
       sodipodi:cy="122"
       sodipodi:r1="15"
       sodipodi:r2="7.5000005"
       sodipodi:arg1="-1.5707963"
       sodipodi:arg2="-0.52359878"
       inkscape:flatsided="false"
       inkscape:rounded="0"
       inkscape:randomized="0"
       d="m -600,107 6.49519,11.25 6.49519,11.25 -12.99038,0 -12.99038,0 6.49519,-11.25 z"
       inkscape:transform-center-y="-5.3278432"
       transform="matrix(1.5287191,0,0,1.4207577,1105.2547,-147.47929)"
       inkscape:transform-center-x="-1.256747e-005" /></g></svg>
